<?xml version="1.0" encoding="UTF-8"?>
<!-- Do not edit this file with editors other than draw.io -->
<!DOCTYPE svg PUBLIC "-//W3C//DTD SVG 1.1//EN" "http://www.w3.org/Graphics/SVG/1.1/DTD/svg11.dtd">
<svg xmlns="http://www.w3.org/2000/svg" xmlns:xlink="http://www.w3.org/1999/xlink" version="1.1" width="809px" height="687px" viewBox="-0.5 -0.5 809 687" content="&lt;mxfile host=&quot;Electron&quot; modified=&quot;2024-04-25T15:44:30.740Z&quot; agent=&quot;Mozilla/5.0 (X11; Linux x86_64) AppleWebKit/537.36 (KHTML, like Gecko) draw.io/24.2.5 Chrome/120.0.6099.109 Electron/28.1.0 Safari/537.36&quot; etag=&quot;51XktdrzJeOyUJ0lbDxx&quot; version=&quot;24.2.5&quot; type=&quot;device&quot; scale=&quot;1&quot; border=&quot;20&quot;&gt;&#10;  &lt;diagram id=&quot;C5RBs43oDa-KdzZeNtuy&quot; name=&quot;Page-1&quot;&gt;&#10;    &lt;mxGraphModel dx=&quot;1566&quot; dy=&quot;824&quot; grid=&quot;0&quot; gridSize=&quot;10&quot; guides=&quot;1&quot; tooltips=&quot;1&quot; connect=&quot;1&quot; arrows=&quot;1&quot; fold=&quot;1&quot; page=&quot;1&quot; pageScale=&quot;1&quot; pageWidth=&quot;827&quot; pageHeight=&quot;1169&quot; math=&quot;0&quot; shadow=&quot;0&quot;&gt;&#10;      &lt;root&gt;&#10;        &lt;mxCell id=&quot;WIyWlLk6GJQsqaUBKTNV-0&quot; /&gt;&#10;        &lt;mxCell id=&quot;WIyWlLk6GJQsqaUBKTNV-1&quot; parent=&quot;WIyWlLk6GJQsqaUBKTNV-0&quot; /&gt;&#10;        &lt;mxCell id=&quot;8H-8zELKQPPg6jKE-Zwu-91&quot; style=&quot;edgeStyle=orthogonalEdgeStyle;rounded=0;orthogonalLoop=1;jettySize=auto;html=1;fontFamily=Helvetica;fontSize=12;fontColor=default;&quot; edge=&quot;1&quot; parent=&quot;WIyWlLk6GJQsqaUBKTNV-1&quot; source=&quot;8H-8zELKQPPg6jKE-Zwu-86&quot; target=&quot;8H-8zELKQPPg6jKE-Zwu-90&quot;&gt;&#10;          &lt;mxGeometry relative=&quot;1&quot; as=&quot;geometry&quot; /&gt;&#10;        &lt;/mxCell&gt;&#10;        &lt;mxCell id=&quot;8H-8zELKQPPg6jKE-Zwu-92&quot; value=&quot;wants to&quot; style=&quot;edgeLabel;html=1;align=center;verticalAlign=middle;resizable=0;points=[];strokeColor=default;fontFamily=Helvetica;fontSize=12;fontColor=default;fillColor=default;&quot; vertex=&quot;1&quot; connectable=&quot;0&quot; parent=&quot;8H-8zELKQPPg6jKE-Zwu-91&quot;&gt;&#10;          &lt;mxGeometry x=&quot;-0.2185&quot; y=&quot;1&quot; relative=&quot;1&quot; as=&quot;geometry&quot;&gt;&#10;            &lt;mxPoint x=&quot;7&quot; y=&quot;1&quot; as=&quot;offset&quot; /&gt;&#10;          &lt;/mxGeometry&gt;&#10;        &lt;/mxCell&gt;&#10;        &lt;mxCell id=&quot;8H-8zELKQPPg6jKE-Zwu-86&quot; value=&quot;Customer&quot; style=&quot;shape=umlActor;verticalLabelPosition=bottom;verticalAlign=top;html=1;outlineConnect=0;strokeColor=default;align=center;fontFamily=Helvetica;fontSize=12;fontColor=default;fillColor=default;&quot; vertex=&quot;1&quot; parent=&quot;WIyWlLk6GJQsqaUBKTNV-1&quot;&gt;&#10;          &lt;mxGeometry x=&quot;70&quot; y=&quot;45&quot; width=&quot;30&quot; height=&quot;60&quot; as=&quot;geometry&quot; /&gt;&#10;        &lt;/mxCell&gt;&#10;        &lt;mxCell id=&quot;8H-8zELKQPPg6jKE-Zwu-90&quot; value=&quot;buy something&quot; style=&quot;ellipse;whiteSpace=wrap;html=1;strokeColor=default;align=center;verticalAlign=top;fontFamily=Helvetica;fontSize=12;fontColor=default;fillColor=default;&quot; vertex=&quot;1&quot; parent=&quot;WIyWlLk6GJQsqaUBKTNV-1&quot;&gt;&#10;          &lt;mxGeometry x=&quot;202&quot; y=&quot;61&quot; width=&quot;120&quot; height=&quot;28&quot; as=&quot;geometry&quot; /&gt;&#10;        &lt;/mxCell&gt;&#10;        &lt;mxCell id=&quot;8H-8zELKQPPg6jKE-Zwu-85&quot; value=&quot;&quot; style=&quot;group&quot; vertex=&quot;1&quot; connectable=&quot;0&quot; parent=&quot;WIyWlLk6GJQsqaUBKTNV-1&quot;&gt;&#10;          &lt;mxGeometry x=&quot;30&quot; y=&quot;171&quot; width=&quot;767&quot; height=&quot;520&quot; as=&quot;geometry&quot; /&gt;&#10;        &lt;/mxCell&gt;&#10;        &lt;mxCell id=&quot;zkfFHV4jXpPFQw0GAbJ--0&quot; value=&quot;Customer&quot; style=&quot;swimlane;fontStyle=2;align=center;verticalAlign=top;childLayout=stackLayout;horizontal=1;startSize=26;horizontalStack=0;resizeParent=1;resizeLast=0;collapsible=1;marginBottom=0;rounded=0;shadow=0;strokeWidth=1;&quot; parent=&quot;8H-8zELKQPPg6jKE-Zwu-85&quot; vertex=&quot;1&quot;&gt;&#10;          &lt;mxGeometry x=&quot;315&quot; width=&quot;200&quot; height=&quot;112&quot; as=&quot;geometry&quot;&gt;&#10;            &lt;mxRectangle x=&quot;230&quot; y=&quot;140&quot; width=&quot;160&quot; height=&quot;26&quot; as=&quot;alternateBounds&quot; /&gt;&#10;          &lt;/mxGeometry&gt;&#10;        &lt;/mxCell&gt;&#10;        &lt;mxCell id=&quot;zkfFHV4jXpPFQw0GAbJ--1&quot; value=&quot;name: string&quot; style=&quot;text;align=left;verticalAlign=top;spacingLeft=4;spacingRight=4;overflow=hidden;rotatable=0;points=[[0,0.5],[1,0.5]];portConstraint=eastwest;&quot; parent=&quot;zkfFHV4jXpPFQw0GAbJ--0&quot; vertex=&quot;1&quot;&gt;&#10;          &lt;mxGeometry y=&quot;26&quot; width=&quot;200&quot; height=&quot;26&quot; as=&quot;geometry&quot; /&gt;&#10;        &lt;/mxCell&gt;&#10;        &lt;mxCell id=&quot;zkfFHV4jXpPFQw0GAbJ--2&quot; value=&quot;billingAddress: Address&quot; style=&quot;text;align=left;verticalAlign=top;spacingLeft=4;spacingRight=4;overflow=hidden;rotatable=0;points=[[0,0.5],[1,0.5]];portConstraint=eastwest;rounded=0;shadow=0;html=0;&quot; parent=&quot;zkfFHV4jXpPFQw0GAbJ--0&quot; vertex=&quot;1&quot;&gt;&#10;          &lt;mxGeometry y=&quot;52&quot; width=&quot;200&quot; height=&quot;26&quot; as=&quot;geometry&quot; /&gt;&#10;        &lt;/mxCell&gt;&#10;        &lt;mxCell id=&quot;zkfFHV4jXpPFQw0GAbJ--3&quot; value=&quot;shippingAddress: ShippingAddress&quot; style=&quot;text;align=left;verticalAlign=top;spacingLeft=4;spacingRight=4;overflow=hidden;rotatable=0;points=[[0,0.5],[1,0.5]];portConstraint=eastwest;rounded=0;shadow=0;html=0;&quot; parent=&quot;zkfFHV4jXpPFQw0GAbJ--0&quot; vertex=&quot;1&quot;&gt;&#10;          &lt;mxGeometry y=&quot;78&quot; width=&quot;200&quot; height=&quot;26&quot; as=&quot;geometry&quot; /&gt;&#10;        &lt;/mxCell&gt;&#10;        &lt;mxCell id=&quot;zkfFHV4jXpPFQw0GAbJ--4&quot; value=&quot;&quot; style=&quot;line;html=1;strokeWidth=1;align=left;verticalAlign=middle;spacingTop=-1;spacingLeft=3;spacingRight=3;rotatable=0;labelPosition=right;points=[];portConstraint=eastwest;&quot; parent=&quot;zkfFHV4jXpPFQw0GAbJ--0&quot; vertex=&quot;1&quot;&gt;&#10;          &lt;mxGeometry y=&quot;104&quot; width=&quot;200&quot; height=&quot;8&quot; as=&quot;geometry&quot; /&gt;&#10;        &lt;/mxCell&gt;&#10;        &lt;mxCell id=&quot;zkfFHV4jXpPFQw0GAbJ--17&quot; value=&quot;Address&quot; style=&quot;swimlane;fontStyle=0;align=center;verticalAlign=top;childLayout=stackLayout;horizontal=1;startSize=26;horizontalStack=0;resizeParent=1;resizeLast=0;collapsible=1;marginBottom=0;rounded=0;shadow=0;strokeWidth=1;&quot; parent=&quot;8H-8zELKQPPg6jKE-Zwu-85&quot; vertex=&quot;1&quot;&gt;&#10;          &lt;mxGeometry x=&quot;607&quot; width=&quot;160&quot; height=&quot;90&quot; as=&quot;geometry&quot;&gt;&#10;            &lt;mxRectangle x=&quot;550&quot; y=&quot;140&quot; width=&quot;160&quot; height=&quot;26&quot; as=&quot;alternateBounds&quot; /&gt;&#10;          &lt;/mxGeometry&gt;&#10;        &lt;/mxCell&gt;&#10;        &lt;mxCell id=&quot;zkfFHV4jXpPFQw0GAbJ--18&quot; value=&quot;zip: string&quot; style=&quot;text;align=left;verticalAlign=top;spacingLeft=4;spacingRight=4;overflow=hidden;rotatable=0;points=[[0,0.5],[1,0.5]];portConstraint=eastwest;&quot; parent=&quot;zkfFHV4jXpPFQw0GAbJ--17&quot; vertex=&quot;1&quot;&gt;&#10;          &lt;mxGeometry y=&quot;26&quot; width=&quot;160&quot; height=&quot;26&quot; as=&quot;geometry&quot; /&gt;&#10;        &lt;/mxCell&gt;&#10;        &lt;mxCell id=&quot;zkfFHV4jXpPFQw0GAbJ--19&quot; value=&quot;number: string&quot; style=&quot;text;align=left;verticalAlign=top;spacingLeft=4;spacingRight=4;overflow=hidden;rotatable=0;points=[[0,0.5],[1,0.5]];portConstraint=eastwest;rounded=0;shadow=0;html=0;&quot; parent=&quot;zkfFHV4jXpPFQw0GAbJ--17&quot; vertex=&quot;1&quot;&gt;&#10;          &lt;mxGeometry y=&quot;52&quot; width=&quot;160&quot; height=&quot;26&quot; as=&quot;geometry&quot; /&gt;&#10;        &lt;/mxCell&gt;&#10;        &lt;mxCell id=&quot;zkfFHV4jXpPFQw0GAbJ--23&quot; value=&quot;&quot; style=&quot;line;html=1;strokeWidth=1;align=left;verticalAlign=middle;spacingTop=-1;spacingLeft=3;spacingRight=3;rotatable=0;labelPosition=right;points=[];portConstraint=eastwest;&quot; parent=&quot;zkfFHV4jXpPFQw0GAbJ--17&quot; vertex=&quot;1&quot;&gt;&#10;          &lt;mxGeometry y=&quot;78&quot; width=&quot;160&quot; height=&quot;8&quot; as=&quot;geometry&quot; /&gt;&#10;        &lt;/mxCell&gt;&#10;        &lt;mxCell id=&quot;zkfFHV4jXpPFQw0GAbJ--26&quot; value=&quot;&quot; style=&quot;endArrow=open;shadow=0;strokeWidth=1;rounded=0;curved=0;endFill=1;edgeStyle=elbowEdgeStyle;elbow=vertical;&quot; parent=&quot;8H-8zELKQPPg6jKE-Zwu-85&quot; source=&quot;zkfFHV4jXpPFQw0GAbJ--2&quot; target=&quot;zkfFHV4jXpPFQw0GAbJ--17&quot; edge=&quot;1&quot;&gt;&#10;          &lt;mxGeometry x=&quot;0.5&quot; y=&quot;41&quot; relative=&quot;1&quot; as=&quot;geometry&quot;&gt;&#10;            &lt;mxPoint x=&quot;479&quot; y=&quot;72&quot; as=&quot;sourcePoint&quot; /&gt;&#10;            &lt;mxPoint x=&quot;639&quot; y=&quot;72&quot; as=&quot;targetPoint&quot; /&gt;&#10;            &lt;mxPoint x=&quot;-40&quot; y=&quot;32&quot; as=&quot;offset&quot; /&gt;&#10;          &lt;/mxGeometry&gt;&#10;        &lt;/mxCell&gt;&#10;        &lt;mxCell id=&quot;zkfFHV4jXpPFQw0GAbJ--27&quot; value=&quot;1&quot; style=&quot;resizable=0;align=left;verticalAlign=bottom;labelBackgroundColor=none;fontSize=12;&quot; parent=&quot;zkfFHV4jXpPFQw0GAbJ--26&quot; connectable=&quot;0&quot; vertex=&quot;1&quot;&gt;&#10;          &lt;mxGeometry x=&quot;-1&quot; relative=&quot;1&quot; as=&quot;geometry&quot;&gt;&#10;            &lt;mxPoint y=&quot;4&quot; as=&quot;offset&quot; /&gt;&#10;          &lt;/mxGeometry&gt;&#10;        &lt;/mxCell&gt;&#10;        &lt;mxCell id=&quot;zkfFHV4jXpPFQw0GAbJ--28&quot; value=&quot;1&quot; style=&quot;resizable=0;align=right;verticalAlign=bottom;labelBackgroundColor=none;fontSize=12;&quot; parent=&quot;zkfFHV4jXpPFQw0GAbJ--26&quot; connectable=&quot;0&quot; vertex=&quot;1&quot;&gt;&#10;          &lt;mxGeometry x=&quot;1&quot; relative=&quot;1&quot; as=&quot;geometry&quot;&gt;&#10;            &lt;mxPoint x=&quot;-7&quot; y=&quot;4&quot; as=&quot;offset&quot; /&gt;&#10;          &lt;/mxGeometry&gt;&#10;        &lt;/mxCell&gt;&#10;        &lt;mxCell id=&quot;zkfFHV4jXpPFQw0GAbJ--29&quot; value=&quot;has an&quot; style=&quot;text;html=1;resizable=0;points=[];;align=center;verticalAlign=middle;labelBackgroundColor=none;rounded=0;shadow=0;strokeWidth=1;fontSize=12;&quot; parent=&quot;zkfFHV4jXpPFQw0GAbJ--26&quot; vertex=&quot;1&quot; connectable=&quot;0&quot;&gt;&#10;          &lt;mxGeometry x=&quot;0.5&quot; y=&quot;49&quot; relative=&quot;1&quot; as=&quot;geometry&quot;&gt;&#10;            &lt;mxPoint x=&quot;-23&quot; y=&quot;44&quot; as=&quot;offset&quot; /&gt;&#10;          &lt;/mxGeometry&gt;&#10;        &lt;/mxCell&gt;&#10;        &lt;mxCell id=&quot;8H-8zELKQPPg6jKE-Zwu-0&quot; value=&quot;ShippingAddress&quot; style=&quot;swimlane;fontStyle=0;align=center;verticalAlign=top;childLayout=stackLayout;horizontal=1;startSize=26;horizontalStack=0;resizeParent=1;resizeLast=0;collapsible=1;marginBottom=0;rounded=0;shadow=0;strokeWidth=1;&quot; vertex=&quot;1&quot; parent=&quot;8H-8zELKQPPg6jKE-Zwu-85&quot;&gt;&#10;          &lt;mxGeometry x=&quot;607&quot; y=&quot;131&quot; width=&quot;160&quot; height=&quot;60&quot; as=&quot;geometry&quot;&gt;&#10;            &lt;mxRectangle x=&quot;550&quot; y=&quot;140&quot; width=&quot;160&quot; height=&quot;26&quot; as=&quot;alternateBounds&quot; /&gt;&#10;          &lt;/mxGeometry&gt;&#10;        &lt;/mxCell&gt;&#10;        &lt;mxCell id=&quot;8H-8zELKQPPg6jKE-Zwu-1&quot; value=&quot;receiver: string&quot; style=&quot;text;align=left;verticalAlign=top;spacingLeft=4;spacingRight=4;overflow=hidden;rotatable=0;points=[[0,0.5],[1,0.5]];portConstraint=eastwest;&quot; vertex=&quot;1&quot; parent=&quot;8H-8zELKQPPg6jKE-Zwu-0&quot;&gt;&#10;          &lt;mxGeometry y=&quot;26&quot; width=&quot;160&quot; height=&quot;26&quot; as=&quot;geometry&quot; /&gt;&#10;        &lt;/mxCell&gt;&#10;        &lt;mxCell id=&quot;8H-8zELKQPPg6jKE-Zwu-3&quot; value=&quot;&quot; style=&quot;line;html=1;strokeWidth=1;align=left;verticalAlign=middle;spacingTop=-1;spacingLeft=3;spacingRight=3;rotatable=0;labelPosition=right;points=[];portConstraint=eastwest;&quot; vertex=&quot;1&quot; parent=&quot;8H-8zELKQPPg6jKE-Zwu-0&quot;&gt;&#10;          &lt;mxGeometry y=&quot;52&quot; width=&quot;160&quot; height=&quot;8&quot; as=&quot;geometry&quot; /&gt;&#10;        &lt;/mxCell&gt;&#10;        &lt;mxCell id=&quot;8H-8zELKQPPg6jKE-Zwu-5&quot; value=&quot;has a&quot; style=&quot;endArrow=classic;html=1;rounded=0;edgeStyle=orthogonalEdgeStyle;exitX=1;exitY=0.5;exitDx=0;exitDy=0;entryX=0;entryY=0.25;entryDx=0;entryDy=0;&quot; edge=&quot;1&quot; parent=&quot;8H-8zELKQPPg6jKE-Zwu-85&quot; source=&quot;zkfFHV4jXpPFQw0GAbJ--3&quot; target=&quot;8H-8zELKQPPg6jKE-Zwu-0&quot;&gt;&#10;          &lt;mxGeometry relative=&quot;1&quot; as=&quot;geometry&quot;&gt;&#10;            &lt;mxPoint x=&quot;569&quot; y=&quot;110&quot; as=&quot;sourcePoint&quot; /&gt;&#10;            &lt;mxPoint x=&quot;579&quot; y=&quot;150&quot; as=&quot;targetPoint&quot; /&gt;&#10;          &lt;/mxGeometry&gt;&#10;        &lt;/mxCell&gt;&#10;        &lt;mxCell id=&quot;8H-8zELKQPPg6jKE-Zwu-6&quot; value=&quot;has a&quot; style=&quot;edgeLabel;resizable=0;html=1;;align=center;verticalAlign=middle;&quot; connectable=&quot;0&quot; vertex=&quot;1&quot; parent=&quot;8H-8zELKQPPg6jKE-Zwu-5&quot;&gt;&#10;          &lt;mxGeometry relative=&quot;1&quot; as=&quot;geometry&quot;&gt;&#10;            &lt;mxPoint as=&quot;offset&quot; /&gt;&#10;          &lt;/mxGeometry&gt;&#10;        &lt;/mxCell&gt;&#10;        &lt;mxCell id=&quot;8H-8zELKQPPg6jKE-Zwu-7&quot; value=&quot;1&quot; style=&quot;edgeLabel;html=1;align=center;verticalAlign=middle;resizable=0;points=[];&quot; vertex=&quot;1&quot; connectable=&quot;0&quot; parent=&quot;8H-8zELKQPPg6jKE-Zwu-5&quot;&gt;&#10;          &lt;mxGeometry x=&quot;-0.7597&quot; y=&quot;-2&quot; relative=&quot;1&quot; as=&quot;geometry&quot;&gt;&#10;            &lt;mxPoint x=&quot;-17&quot; y=&quot;-9&quot; as=&quot;offset&quot; /&gt;&#10;          &lt;/mxGeometry&gt;&#10;        &lt;/mxCell&gt;&#10;        &lt;mxCell id=&quot;8H-8zELKQPPg6jKE-Zwu-9&quot; value=&quot;is a&quot; style=&quot;endArrow=block;endSize=16;endFill=0;html=1;rounded=0;exitX=0.501;exitY=0.007;exitDx=0;exitDy=0;exitPerimeter=0;entryX=0.5;entryY=1;entryDx=0;entryDy=0;&quot; edge=&quot;1&quot; parent=&quot;8H-8zELKQPPg6jKE-Zwu-85&quot; source=&quot;8H-8zELKQPPg6jKE-Zwu-0&quot; target=&quot;zkfFHV4jXpPFQw0GAbJ--17&quot;&gt;&#10;          &lt;mxGeometry x=&quot;-0.4993&quot; y=&quot;-13&quot; width=&quot;160&quot; relative=&quot;1&quot; as=&quot;geometry&quot;&gt;&#10;            &lt;mxPoint x=&quot;501&quot; y=&quot;122&quot; as=&quot;sourcePoint&quot; /&gt;&#10;            &lt;mxPoint x=&quot;695&quot; y=&quot;90&quot; as=&quot;targetPoint&quot; /&gt;&#10;            &lt;mxPoint as=&quot;offset&quot; /&gt;&#10;          &lt;/mxGeometry&gt;&#10;        &lt;/mxCell&gt;&#10;        &lt;mxCell id=&quot;8H-8zELKQPPg6jKE-Zwu-20&quot; value=&quot;&quot; style=&quot;endArrow=classic;html=1;rounded=0;exitX=1.002;exitY=0.68;exitDx=0;exitDy=0;entryX=0.001;entryY=0.164;entryDx=0;entryDy=0;entryPerimeter=0;exitPerimeter=0;&quot; edge=&quot;1&quot; parent=&quot;8H-8zELKQPPg6jKE-Zwu-85&quot; source=&quot;8H-8zELKQPPg6jKE-Zwu-61&quot; target=&quot;zkfFHV4jXpPFQw0GAbJ--2&quot;&gt;&#10;          &lt;mxGeometry width=&quot;50&quot; height=&quot;50&quot; relative=&quot;1&quot; as=&quot;geometry&quot;&gt;&#10;            &lt;mxPoint x=&quot;245&quot; y=&quot;56&quot; as=&quot;sourcePoint&quot; /&gt;&#10;            &lt;mxPoint x=&quot;339&quot; y=&quot;24&quot; as=&quot;targetPoint&quot; /&gt;&#10;          &lt;/mxGeometry&gt;&#10;        &lt;/mxCell&gt;&#10;        &lt;mxCell id=&quot;8H-8zELKQPPg6jKE-Zwu-60&quot; value=&quot;Classname&quot; style=&quot;swimlane;fontStyle=1;align=center;verticalAlign=top;childLayout=stackLayout;horizontal=1;startSize=26;horizontalStack=0;resizeParent=1;resizeParentMax=0;resizeLast=0;collapsible=1;marginBottom=0;whiteSpace=wrap;html=1;points=[[0,0,0,0,0],[0,0.2,0,0,0],[0,0.25,0,0,0],[0,0.33,0,0,0],[0,0.4,0,0,0],[0,0.5,0,0,0],[0,0.6,0,0,0],[0,0.66,0,0,0],[0,0.67,0,0,0],[0,0.79,0,0,0],[0,0.92,0,0,0],[0,1,0,0,0],[0.25,0,0,0,0],[0.25,1,0,0,0],[0.5,0,0,0,0],[0.5,1,0,0,0],[0.75,0,0,0,0],[0.75,1,0,0,0],[1,0,0,0,0],[1,0.25,0,0,0],[1,0.5,0,0,0],[1,0.75,0,0,0],[1,1,0,0,0]];&quot; vertex=&quot;1&quot; parent=&quot;8H-8zELKQPPg6jKE-Zwu-85&quot;&gt;&#10;          &lt;mxGeometry x=&quot;58&quot; y=&quot;13&quot; width=&quot;160&quot; height=&quot;164&quot; as=&quot;geometry&quot; /&gt;&#10;        &lt;/mxCell&gt;&#10;        &lt;mxCell id=&quot;8H-8zELKQPPg6jKE-Zwu-61&quot; value=&quot;customer: Customer&quot; style=&quot;text;strokeColor=none;fillColor=none;align=left;verticalAlign=top;spacingLeft=4;spacingRight=4;overflow=hidden;rotatable=0;points=[[0,0.5],[1,0.5]];portConstraint=eastwest;whiteSpace=wrap;html=1;&quot; vertex=&quot;1&quot; parent=&quot;8H-8zELKQPPg6jKE-Zwu-60&quot;&gt;&#10;          &lt;mxGeometry y=&quot;26&quot; width=&quot;160&quot; height=&quot;26&quot; as=&quot;geometry&quot; /&gt;&#10;        &lt;/mxCell&gt;&#10;        &lt;mxCell id=&quot;8H-8zELKQPPg6jKE-Zwu-68&quot; value=&quot;state: OrderState&quot; style=&quot;text;strokeColor=none;fillColor=none;align=left;verticalAlign=top;spacingLeft=4;spacingRight=4;overflow=hidden;rotatable=0;points=[[0,0.5],[1,0.5]];portConstraint=eastwest;whiteSpace=wrap;html=1;&quot; vertex=&quot;1&quot; parent=&quot;8H-8zELKQPPg6jKE-Zwu-60&quot;&gt;&#10;          &lt;mxGeometry y=&quot;52&quot; width=&quot;160&quot; height=&quot;26&quot; as=&quot;geometry&quot; /&gt;&#10;        &lt;/mxCell&gt;&#10;        &lt;mxCell id=&quot;8H-8zELKQPPg6jKE-Zwu-62&quot; value=&quot;&quot; style=&quot;line;strokeWidth=1;fillColor=none;align=left;verticalAlign=middle;spacingTop=-1;spacingLeft=3;spacingRight=3;rotatable=0;labelPosition=right;points=[];portConstraint=eastwest;strokeColor=inherit;&quot; vertex=&quot;1&quot; parent=&quot;8H-8zELKQPPg6jKE-Zwu-60&quot;&gt;&#10;          &lt;mxGeometry y=&quot;78&quot; width=&quot;160&quot; height=&quot;8&quot; as=&quot;geometry&quot; /&gt;&#10;        &lt;/mxCell&gt;&#10;        &lt;mxCell id=&quot;8H-8zELKQPPg6jKE-Zwu-63&quot; value=&quot;complete(): string&quot; style=&quot;text;strokeColor=none;fillColor=none;align=left;verticalAlign=top;spacingLeft=4;spacingRight=4;overflow=hidden;rotatable=0;points=[[0,0.5],[1,0.5]];portConstraint=eastwest;whiteSpace=wrap;html=1;&quot; vertex=&quot;1&quot; parent=&quot;8H-8zELKQPPg6jKE-Zwu-60&quot;&gt;&#10;          &lt;mxGeometry y=&quot;86&quot; width=&quot;160&quot; height=&quot;26&quot; as=&quot;geometry&quot; /&gt;&#10;        &lt;/mxCell&gt;&#10;        &lt;mxCell id=&quot;8H-8zELKQPPg6jKE-Zwu-66&quot; value=&quot;cancel(): string&quot; style=&quot;text;strokeColor=none;fillColor=none;align=left;verticalAlign=top;spacingLeft=4;spacingRight=4;overflow=hidden;rotatable=0;points=[[0,0.5],[1,0.5]];portConstraint=eastwest;whiteSpace=wrap;html=1;&quot; vertex=&quot;1&quot; parent=&quot;8H-8zELKQPPg6jKE-Zwu-60&quot;&gt;&#10;          &lt;mxGeometry y=&quot;112&quot; width=&quot;160&quot; height=&quot;26&quot; as=&quot;geometry&quot; /&gt;&#10;        &lt;/mxCell&gt;&#10;        &lt;mxCell id=&quot;8H-8zELKQPPg6jKE-Zwu-67&quot; value=&quot;refund(): string&quot; style=&quot;text;strokeColor=none;fillColor=none;align=left;verticalAlign=top;spacingLeft=4;spacingRight=4;overflow=hidden;rotatable=0;points=[[0,0.5],[1,0.5]];portConstraint=eastwest;whiteSpace=wrap;html=1;&quot; vertex=&quot;1&quot; parent=&quot;8H-8zELKQPPg6jKE-Zwu-60&quot;&gt;&#10;          &lt;mxGeometry y=&quot;138&quot; width=&quot;160&quot; height=&quot;26&quot; as=&quot;geometry&quot; /&gt;&#10;        &lt;/mxCell&gt;&#10;        &lt;mxCell id=&quot;8H-8zELKQPPg6jKE-Zwu-70&quot; value=&quot;&amp;lt;p style=&amp;quot;margin:0px;margin-top:4px;text-align:center;&amp;quot;&amp;gt;&amp;lt;i&amp;gt;&amp;amp;lt;&amp;amp;lt;Interface&amp;amp;gt;&amp;amp;gt;&amp;lt;/i&amp;gt;&amp;lt;br&amp;gt;&amp;lt;b&amp;gt;OrderState&amp;lt;/b&amp;gt;&amp;lt;/p&amp;gt;&amp;lt;hr size=&amp;quot;1&amp;quot; style=&amp;quot;border-style:solid;&amp;quot;&amp;gt;&amp;lt;p style=&amp;quot;margin:0px;margin-left:4px;&amp;quot;&amp;gt;complete(Order): string&amp;lt;/p&amp;gt;&amp;lt;p style=&amp;quot;margin:0px;margin-left:4px;&amp;quot;&amp;gt;cancel(Order): string&amp;lt;/p&amp;gt;&amp;lt;p style=&amp;quot;margin:0px;margin-left:4px;&amp;quot;&amp;gt;refund(Order): string&amp;lt;/p&amp;gt;&quot; style=&quot;verticalAlign=top;align=left;overflow=fill;html=1;whiteSpace=wrap;points=[[0,0,0,0,0],[0,0.25,0,0,0],[0,0.5,0,0,0],[0,0.75,0,0,0],[0,1,0,0,0],[0.25,0,0,0,0],[0.25,1,0,0,0],[0.5,0,0,0,0],[0.5,1,0,0,0],[0.75,0,0,0,0],[0.75,1,0,0,0],[1,0,0,0,0],[1,0.25,0,0,0],[1,0.5,0,0,0],[1,0.75,0,0,0],[1,1,0,0,0]];&quot; vertex=&quot;1&quot; parent=&quot;8H-8zELKQPPg6jKE-Zwu-85&quot;&gt;&#10;          &lt;mxGeometry x=&quot;181&quot; y=&quot;312&quot; width=&quot;190&quot; height=&quot;96&quot; as=&quot;geometry&quot; /&gt;&#10;        &lt;/mxCell&gt;&#10;        &lt;mxCell id=&quot;8H-8zELKQPPg6jKE-Zwu-71&quot; value=&quot;&quot; style=&quot;endArrow=diamondThin;endFill=0;endSize=24;html=1;rounded=0;exitX=1;exitY=0.5;exitDx=0;exitDy=0;entryX=0.5;entryY=0;entryDx=0;entryDy=0;edgeStyle=orthogonalEdgeStyle;&quot; edge=&quot;1&quot; parent=&quot;8H-8zELKQPPg6jKE-Zwu-85&quot; source=&quot;8H-8zELKQPPg6jKE-Zwu-68&quot; target=&quot;8H-8zELKQPPg6jKE-Zwu-70&quot;&gt;&#10;          &lt;mxGeometry width=&quot;160&quot; relative=&quot;1&quot; as=&quot;geometry&quot;&gt;&#10;            &lt;mxPoint x=&quot;415&quot; y=&quot;267&quot; as=&quot;sourcePoint&quot; /&gt;&#10;            &lt;mxPoint x=&quot;575&quot; y=&quot;267&quot; as=&quot;targetPoint&quot; /&gt;&#10;          &lt;/mxGeometry&gt;&#10;        &lt;/mxCell&gt;&#10;        &lt;mxCell id=&quot;8H-8zELKQPPg6jKE-Zwu-43&quot; value=&quot;&amp;lt;p style=&amp;quot;margin:0px;margin-top:4px;text-align:center;&amp;quot;&amp;gt;&amp;lt;br&amp;gt;&amp;lt;b&amp;gt;CancelledState&amp;lt;/b&amp;gt;&amp;lt;/p&amp;gt;&quot; style=&quot;verticalAlign=top;align=left;overflow=fill;html=1;whiteSpace=wrap;&quot; vertex=&quot;1&quot; parent=&quot;8H-8zELKQPPg6jKE-Zwu-85&quot;&gt;&#10;          &lt;mxGeometry x=&quot;467&quot; y=&quot;297&quot; width=&quot;140&quot; height=&quot;49&quot; as=&quot;geometry&quot; /&gt;&#10;        &lt;/mxCell&gt;&#10;        &lt;mxCell id=&quot;8H-8zELKQPPg6jKE-Zwu-44&quot; value=&quot;&amp;lt;p style=&amp;quot;margin:0px;margin-top:4px;text-align:center;&amp;quot;&amp;gt;&amp;lt;br&amp;gt;&amp;lt;b&amp;gt;PendingState&amp;lt;/b&amp;gt;&amp;lt;/p&amp;gt;&quot; style=&quot;verticalAlign=top;align=left;overflow=fill;html=1;whiteSpace=wrap;&quot; vertex=&quot;1&quot; parent=&quot;8H-8zELKQPPg6jKE-Zwu-85&quot;&gt;&#10;          &lt;mxGeometry x=&quot;467&quot; y=&quot;210&quot; width=&quot;140&quot; height=&quot;49&quot; as=&quot;geometry&quot; /&gt;&#10;        &lt;/mxCell&gt;&#10;        &lt;mxCell id=&quot;8H-8zELKQPPg6jKE-Zwu-45&quot; value=&quot;&amp;lt;p style=&amp;quot;margin:0px;margin-top:4px;text-align:center;&amp;quot;&amp;gt;&amp;lt;br&amp;gt;&amp;lt;b&amp;gt;CompletedState&amp;lt;/b&amp;gt;&amp;lt;/p&amp;gt;&quot; style=&quot;verticalAlign=top;align=left;overflow=fill;html=1;whiteSpace=wrap;&quot; vertex=&quot;1&quot; parent=&quot;8H-8zELKQPPg6jKE-Zwu-85&quot;&gt;&#10;          &lt;mxGeometry x=&quot;467&quot; y=&quot;384&quot; width=&quot;140&quot; height=&quot;49&quot; as=&quot;geometry&quot; /&gt;&#10;        &lt;/mxCell&gt;&#10;        &lt;mxCell id=&quot;8H-8zELKQPPg6jKE-Zwu-46&quot; value=&quot;&amp;lt;p style=&amp;quot;margin:0px;margin-top:4px;text-align:center;&amp;quot;&amp;gt;&amp;lt;br&amp;gt;&amp;lt;b&amp;gt;RefundedState&amp;lt;/b&amp;gt;&amp;lt;/p&amp;gt;&quot; style=&quot;verticalAlign=top;align=left;overflow=fill;html=1;whiteSpace=wrap;&quot; vertex=&quot;1&quot; parent=&quot;8H-8zELKQPPg6jKE-Zwu-85&quot;&gt;&#10;          &lt;mxGeometry x=&quot;467&quot; y=&quot;471&quot; width=&quot;140&quot; height=&quot;49&quot; as=&quot;geometry&quot; /&gt;&#10;        &lt;/mxCell&gt;&#10;        &lt;mxCell id=&quot;8H-8zELKQPPg6jKE-Zwu-74&quot; value=&quot;&quot; style=&quot;endArrow=block;dashed=1;endFill=0;endSize=12;html=1;rounded=0;exitX=0;exitY=0.5;exitDx=0;exitDy=0;entryX=1;entryY=0.5;entryDx=0;entryDy=0;edgeStyle=orthogonalEdgeStyle;&quot; edge=&quot;1&quot; parent=&quot;8H-8zELKQPPg6jKE-Zwu-85&quot; source=&quot;8H-8zELKQPPg6jKE-Zwu-44&quot; target=&quot;8H-8zELKQPPg6jKE-Zwu-70&quot;&gt;&#10;          &lt;mxGeometry width=&quot;160&quot; relative=&quot;1&quot; as=&quot;geometry&quot;&gt;&#10;            &lt;mxPoint x=&quot;415&quot; y=&quot;276&quot; as=&quot;sourcePoint&quot; /&gt;&#10;            &lt;mxPoint x=&quot;575&quot; y=&quot;276&quot; as=&quot;targetPoint&quot; /&gt;&#10;          &lt;/mxGeometry&gt;&#10;        &lt;/mxCell&gt;&#10;        &lt;mxCell id=&quot;8H-8zELKQPPg6jKE-Zwu-75&quot; value=&quot;&quot; style=&quot;endArrow=block;dashed=1;endFill=0;endSize=12;html=1;rounded=0;exitX=0;exitY=0.5;exitDx=0;exitDy=0;entryX=1;entryY=0.5;entryDx=0;entryDy=0;entryPerimeter=0;edgeStyle=orthogonalEdgeStyle;&quot; edge=&quot;1&quot; parent=&quot;8H-8zELKQPPg6jKE-Zwu-85&quot; source=&quot;8H-8zELKQPPg6jKE-Zwu-43&quot; target=&quot;8H-8zELKQPPg6jKE-Zwu-70&quot;&gt;&#10;          &lt;mxGeometry width=&quot;160&quot; relative=&quot;1&quot; as=&quot;geometry&quot;&gt;&#10;            &lt;mxPoint x=&quot;415&quot; y=&quot;276&quot; as=&quot;sourcePoint&quot; /&gt;&#10;            &lt;mxPoint x=&quot;575&quot; y=&quot;276&quot; as=&quot;targetPoint&quot; /&gt;&#10;          &lt;/mxGeometry&gt;&#10;        &lt;/mxCell&gt;&#10;        &lt;mxCell id=&quot;8H-8zELKQPPg6jKE-Zwu-76&quot; value=&quot;&quot; style=&quot;endArrow=block;dashed=1;endFill=0;endSize=12;html=1;rounded=0;exitX=0;exitY=0.5;exitDx=0;exitDy=0;entryX=1;entryY=0.5;entryDx=0;entryDy=0;edgeStyle=orthogonalEdgeStyle;entryPerimeter=0;&quot; edge=&quot;1&quot; parent=&quot;8H-8zELKQPPg6jKE-Zwu-85&quot; source=&quot;8H-8zELKQPPg6jKE-Zwu-45&quot; target=&quot;8H-8zELKQPPg6jKE-Zwu-70&quot;&gt;&#10;          &lt;mxGeometry width=&quot;160&quot; relative=&quot;1&quot; as=&quot;geometry&quot;&gt;&#10;            &lt;mxPoint x=&quot;415&quot; y=&quot;276&quot; as=&quot;sourcePoint&quot; /&gt;&#10;            &lt;mxPoint x=&quot;575&quot; y=&quot;276&quot; as=&quot;targetPoint&quot; /&gt;&#10;          &lt;/mxGeometry&gt;&#10;        &lt;/mxCell&gt;&#10;        &lt;mxCell id=&quot;8H-8zELKQPPg6jKE-Zwu-77&quot; value=&quot;&quot; style=&quot;endArrow=block;dashed=1;endFill=0;endSize=12;html=1;rounded=0;exitX=0;exitY=0.5;exitDx=0;exitDy=0;entryX=1;entryY=0.5;entryDx=0;entryDy=0;edgeStyle=orthogonalEdgeStyle;entryPerimeter=0;&quot; edge=&quot;1&quot; parent=&quot;8H-8zELKQPPg6jKE-Zwu-85&quot; source=&quot;8H-8zELKQPPg6jKE-Zwu-46&quot; target=&quot;8H-8zELKQPPg6jKE-Zwu-70&quot;&gt;&#10;          &lt;mxGeometry width=&quot;160&quot; relative=&quot;1&quot; as=&quot;geometry&quot;&gt;&#10;            &lt;mxPoint x=&quot;415&quot; y=&quot;276&quot; as=&quot;sourcePoint&quot; /&gt;&#10;            &lt;mxPoint x=&quot;575&quot; y=&quot;276&quot; as=&quot;targetPoint&quot; /&gt;&#10;            &lt;Array as=&quot;points&quot;&gt;&#10;              &lt;mxPoint x=&quot;419&quot; y=&quot;496&quot; /&gt;&#10;              &lt;mxPoint x=&quot;419&quot; y=&quot;360&quot; /&gt;&#10;            &lt;/Array&gt;&#10;          &lt;/mxGeometry&gt;&#10;        &lt;/mxCell&gt;&#10;        &lt;mxCell id=&quot;8H-8zELKQPPg6jKE-Zwu-78&quot; value=&quot;state.refund()&quot; style=&quot;shape=note;whiteSpace=wrap;html=1;backgroundOutline=1;darkOpacity=0.05;strokeColor=default;align=left;verticalAlign=top;fontFamily=Helvetica;fontSize=12;fontColor=default;fillColor=default;size=17;&quot; vertex=&quot;1&quot; parent=&quot;8H-8zELKQPPg6jKE-Zwu-85&quot;&gt;&#10;          &lt;mxGeometry x=&quot;58&quot; y=&quot;197&quot; width=&quot;117&quot; height=&quot;27&quot; as=&quot;geometry&quot; /&gt;&#10;        &lt;/mxCell&gt;&#10;        &lt;mxCell id=&quot;8H-8zELKQPPg6jKE-Zwu-79&quot; value=&quot;state.cancel()&quot; style=&quot;shape=note;whiteSpace=wrap;html=1;backgroundOutline=1;darkOpacity=0.05;strokeColor=default;align=left;verticalAlign=top;fontFamily=Helvetica;fontSize=12;fontColor=default;fillColor=default;size=17;&quot; vertex=&quot;1&quot; parent=&quot;8H-8zELKQPPg6jKE-Zwu-85&quot;&gt;&#10;          &lt;mxGeometry x=&quot;58&quot; y=&quot;237&quot; width=&quot;117&quot; height=&quot;27&quot; as=&quot;geometry&quot; /&gt;&#10;        &lt;/mxCell&gt;&#10;        &lt;mxCell id=&quot;8H-8zELKQPPg6jKE-Zwu-80&quot; value=&quot;state.complete()&quot; style=&quot;shape=note;whiteSpace=wrap;html=1;backgroundOutline=1;darkOpacity=0.05;strokeColor=default;align=left;verticalAlign=top;fontFamily=Helvetica;fontSize=12;fontColor=default;fillColor=default;size=17;&quot; vertex=&quot;1&quot; parent=&quot;8H-8zELKQPPg6jKE-Zwu-85&quot;&gt;&#10;          &lt;mxGeometry x=&quot;58&quot; y=&quot;277&quot; width=&quot;117&quot; height=&quot;27&quot; as=&quot;geometry&quot; /&gt;&#10;        &lt;/mxCell&gt;&#10;        &lt;mxCell id=&quot;8H-8zELKQPPg6jKE-Zwu-82&quot; value=&quot;&quot; style=&quot;endArrow=none;dashed=1;html=1;dashPattern=1 3;strokeWidth=2;rounded=0;fontFamily=Helvetica;fontSize=12;fontColor=default;exitX=0;exitY=0.5;exitDx=0;exitDy=0;exitPerimeter=0;entryX=0;entryY=0.5;entryDx=0;entryDy=0;edgeStyle=orthogonalEdgeStyle;&quot; edge=&quot;1&quot; parent=&quot;8H-8zELKQPPg6jKE-Zwu-85&quot; source=&quot;8H-8zELKQPPg6jKE-Zwu-80&quot; target=&quot;8H-8zELKQPPg6jKE-Zwu-63&quot;&gt;&#10;          &lt;mxGeometry width=&quot;50&quot; height=&quot;50&quot; relative=&quot;1&quot; as=&quot;geometry&quot;&gt;&#10;            &lt;mxPoint x=&quot;213&quot; y=&quot;277&quot; as=&quot;sourcePoint&quot; /&gt;&#10;            &lt;mxPoint x=&quot;263&quot; y=&quot;227&quot; as=&quot;targetPoint&quot; /&gt;&#10;            &lt;Array as=&quot;points&quot;&gt;&#10;              &lt;mxPoint y=&quot;290&quot; /&gt;&#10;              &lt;mxPoint y=&quot;112&quot; /&gt;&#10;            &lt;/Array&gt;&#10;          &lt;/mxGeometry&gt;&#10;        &lt;/mxCell&gt;&#10;        &lt;mxCell id=&quot;8H-8zELKQPPg6jKE-Zwu-83&quot; value=&quot;&quot; style=&quot;endArrow=none;dashed=1;html=1;dashPattern=1 3;strokeWidth=2;rounded=0;fontFamily=Helvetica;fontSize=12;fontColor=default;exitX=0;exitY=0.5;exitDx=0;exitDy=0;exitPerimeter=0;entryX=0;entryY=0.5;entryDx=0;entryDy=0;edgeStyle=orthogonalEdgeStyle;&quot; edge=&quot;1&quot; parent=&quot;8H-8zELKQPPg6jKE-Zwu-85&quot; source=&quot;8H-8zELKQPPg6jKE-Zwu-79&quot; target=&quot;8H-8zELKQPPg6jKE-Zwu-66&quot;&gt;&#10;          &lt;mxGeometry width=&quot;50&quot; height=&quot;50&quot; relative=&quot;1&quot; as=&quot;geometry&quot;&gt;&#10;            &lt;mxPoint x=&quot;213&quot; y=&quot;277&quot; as=&quot;sourcePoint&quot; /&gt;&#10;            &lt;mxPoint x=&quot;263&quot; y=&quot;227&quot; as=&quot;targetPoint&quot; /&gt;&#10;            &lt;Array as=&quot;points&quot;&gt;&#10;              &lt;mxPoint x=&quot;20&quot; y=&quot;250&quot; /&gt;&#10;              &lt;mxPoint x=&quot;20&quot; y=&quot;138&quot; /&gt;&#10;            &lt;/Array&gt;&#10;          &lt;/mxGeometry&gt;&#10;        &lt;/mxCell&gt;&#10;        &lt;mxCell id=&quot;8H-8zELKQPPg6jKE-Zwu-84&quot; value=&quot;&quot; style=&quot;endArrow=none;dashed=1;html=1;dashPattern=1 3;strokeWidth=2;rounded=0;fontFamily=Helvetica;fontSize=12;fontColor=default;exitX=0;exitY=0.5;exitDx=0;exitDy=0;exitPerimeter=0;entryX=0;entryY=0.5;entryDx=0;entryDy=0;edgeStyle=orthogonalEdgeStyle;&quot; edge=&quot;1&quot; parent=&quot;8H-8zELKQPPg6jKE-Zwu-85&quot; source=&quot;8H-8zELKQPPg6jKE-Zwu-78&quot; target=&quot;8H-8zELKQPPg6jKE-Zwu-67&quot;&gt;&#10;          &lt;mxGeometry width=&quot;50&quot; height=&quot;50&quot; relative=&quot;1&quot; as=&quot;geometry&quot;&gt;&#10;            &lt;mxPoint x=&quot;213&quot; y=&quot;277&quot; as=&quot;sourcePoint&quot; /&gt;&#10;            &lt;mxPoint x=&quot;263&quot; y=&quot;227&quot; as=&quot;targetPoint&quot; /&gt;&#10;            &lt;Array as=&quot;points&quot;&gt;&#10;              &lt;mxPoint x=&quot;42&quot; y=&quot;210&quot; /&gt;&#10;              &lt;mxPoint x=&quot;42&quot; y=&quot;164&quot; /&gt;&#10;            &lt;/Array&gt;&#10;          &lt;/mxGeometry&gt;&#10;        &lt;/mxCell&gt;&#10;      &lt;/root&gt;&#10;    &lt;/mxGraphModel&gt;&#10;  &lt;/diagram&gt;&#10;&lt;/mxfile&gt;&#10;"><defs><clipPath id="mx-clip-340-177-192-26-0"><rect x="340" y="177" width="192" height="26"/></clipPath><clipPath id="mx-clip-340-203-192-26-0"><rect x="340" y="203" width="192" height="26"/></clipPath><clipPath id="mx-clip-340-229-192-26-0"><rect x="340" y="229" width="192" height="26"/></clipPath><clipPath id="mx-clip-632-177-152-26-0"><rect x="632" y="177" width="152" height="26"/></clipPath><clipPath id="mx-clip-632-203-152-26-0"><rect x="632" y="203" width="152" height="26"/></clipPath><clipPath id="mx-clip-632-308-152-26-0"><rect x="632" y="308" width="152" height="26"/></clipPath></defs><g><g><path d="M 91 50 L 186.63 50" fill="none" stroke="rgb(240, 240, 240)" stroke-miterlimit="10" pointer-events="stroke"/><path d="M 191.88 50 L 184.88 53.5 L 186.63 50 L 184.88 46.5 Z" fill="rgb(240, 240, 240)" stroke="rgb(240, 240, 240)" stroke-miterlimit="10" pointer-events="all"/></g><g><g transform="translate(-0.5 -0.5)"><switch><foreignObject pointer-events="none" width="100%" height="100%" requiredFeatures="http://www.w3.org/TR/SVG11/feature#Extensibility" style="overflow: visible; text-align: left;"><div xmlns="http://www.w3.org/1999/xhtml" style="display: flex; align-items: unsafe center; justify-content: unsafe center; width: 1px; height: 1px; padding-top: 51px; margin-left: 139px;"><div data-drawio-colors="color: rgb(240, 240, 240); background-color: rgb(24, 20, 29); " style="box-sizing: border-box; font-size: 0px; text-align: center;"><div style="display: inline-block; font-size: 12px; font-family: Helvetica; color: rgb(240, 240, 240); line-height: 1.2; pointer-events: all; background-color: rgb(24, 20, 29); white-space: nowrap;">wants to</div></div></div></foreignObject><text x="139" y="54" fill="rgb(240, 240, 240)" font-family="Helvetica" font-size="12px" text-anchor="middle">wants to</text></switch></g></g><g><ellipse cx="76" cy="27.5" rx="7.5" ry="7.5" fill="rgb(24, 20, 29)" stroke="rgb(240, 240, 240)" pointer-events="all"/><path d="M 76 35 L 76 60 M 76 40 L 61 40 M 76 40 L 91 40 M 76 60 L 61 80 M 76 60 L 91 80" fill="none" stroke="rgb(240, 240, 240)" stroke-miterlimit="10" pointer-events="all"/></g><g><g transform="translate(-0.5 -0.5)"><switch><foreignObject pointer-events="none" width="100%" height="100%" requiredFeatures="http://www.w3.org/TR/SVG11/feature#Extensibility" style="overflow: visible; text-align: left;"><div xmlns="http://www.w3.org/1999/xhtml" style="display: flex; align-items: unsafe flex-start; justify-content: unsafe center; width: 1px; height: 1px; padding-top: 87px; margin-left: 76px;"><div data-drawio-colors="color: rgb(240, 240, 240); " style="box-sizing: border-box; font-size: 0px; text-align: center;"><div style="display: inline-block; font-size: 12px; font-family: Helvetica; color: rgb(240, 240, 240); line-height: 1.2; pointer-events: all; white-space: nowrap;">Customer</div></div></div></foreignObject><text x="76" y="99" fill="rgb(240, 240, 240)" font-family="Helvetica" font-size="12px" text-anchor="middle">Custo...</text></switch></g></g><g><ellipse cx="253" cy="50" rx="60" ry="14" fill="rgb(24, 20, 29)" stroke="rgb(240, 240, 240)" pointer-events="all"/></g><g><g transform="translate(-0.5 -0.5)"><switch><foreignObject pointer-events="none" width="100%" height="100%" requiredFeatures="http://www.w3.org/TR/SVG11/feature#Extensibility" style="overflow: visible; text-align: left;"><div xmlns="http://www.w3.org/1999/xhtml" style="display: flex; align-items: unsafe flex-start; justify-content: unsafe center; width: 118px; height: 1px; padding-top: 43px; margin-left: 194px;"><div data-drawio-colors="color: rgb(240, 240, 240); " style="box-sizing: border-box; font-size: 0px; text-align: center;"><div style="display: inline-block; font-size: 12px; font-family: Helvetica; color: rgb(240, 240, 240); line-height: 1.2; pointer-events: all; white-space: normal; overflow-wrap: normal;">buy something</div></div></div></foreignObject><text x="253" y="55" fill="rgb(240, 240, 240)" font-family="Helvetica" font-size="12px" text-anchor="middle">buy something</text></switch></g></g><g/><g><path d="M 336 172 L 336 146 L 536 146 L 536 172" fill="rgb(24, 20, 29)" stroke="rgb(240, 240, 240)" stroke-miterlimit="10" pointer-events="all"/><path d="M 336 172 L 336 258 L 536 258 L 536 172" fill="none" stroke="rgb(240, 240, 240)" stroke-miterlimit="10" pointer-events="none"/><path d="M 336 172 L 536 172" fill="none" stroke="rgb(240, 240, 240)" stroke-miterlimit="10" pointer-events="none"/></g><g><g fill="rgb(240, 240, 240)" font-family="Helvetica" font-style="italic" text-anchor="middle" font-size="12px"><text x="435.5" y="163.5">Customer</text></g></g><g><rect x="336" y="172" width="200" height="26" fill="none" stroke="none" pointer-events="all"/></g><g><g fill="rgb(240, 240, 240)" font-family="Helvetica" clip-path="url(#mx-clip-340-177-192-26-0)" font-size="12px"><text x="341.5" y="189.5">name: string</text></g></g><g><rect x="336" y="198" width="200" height="26" fill="none" stroke="none" pointer-events="all"/></g><g><g fill="rgb(240, 240, 240)" font-family="Helvetica" clip-path="url(#mx-clip-340-203-192-26-0)" font-size="12px"><text x="341.5" y="215.5">billingAddress: Address</text></g></g><g><rect x="336" y="224" width="200" height="26" fill="none" stroke="none" pointer-events="all"/></g><g><g fill="rgb(240, 240, 240)" font-family="Helvetica" clip-path="url(#mx-clip-340-229-192-26-0)" font-size="12px"><text x="341.5" y="241.5">shippingAddress: ShippingAddress</text></g></g><g><path d="M 336 254 L 536 254" fill="none" stroke="rgb(240, 240, 240)" stroke-miterlimit="10" pointer-events="all"/></g><g><path d="M 628 172 L 628 146 L 788 146 L 788 172" fill="rgb(24, 20, 29)" stroke="rgb(240, 240, 240)" stroke-miterlimit="10" pointer-events="all"/><path d="M 628 172 L 628 236 L 788 236 L 788 172" fill="none" stroke="rgb(240, 240, 240)" stroke-miterlimit="10" pointer-events="none"/><path d="M 628 172 L 788 172" fill="none" stroke="rgb(240, 240, 240)" stroke-miterlimit="10" pointer-events="none"/></g><g><g fill="rgb(240, 240, 240)" font-family="Helvetica" text-anchor="middle" font-size="12px"><text x="707.5" y="163.5">Address</text></g></g><g><rect x="628" y="172" width="160" height="26" fill="none" stroke="none" pointer-events="all"/></g><g><g fill="rgb(240, 240, 240)" font-family="Helvetica" clip-path="url(#mx-clip-632-177-152-26-0)" font-size="12px"><text x="633.5" y="189.5">zip: string</text></g></g><g><rect x="628" y="198" width="160" height="26" fill="none" stroke="none" pointer-events="all"/></g><g><g fill="rgb(240, 240, 240)" font-family="Helvetica" clip-path="url(#mx-clip-632-203-152-26-0)" font-size="12px"><text x="633.5" y="215.5">number: string</text></g></g><g><path d="M 628 228 L 788 228" fill="none" stroke="rgb(240, 240, 240)" stroke-miterlimit="10" pointer-events="all"/></g><g><path d="M 536 211 L 582 211 L 625.76 211" fill="none" stroke="rgb(240, 240, 240)" stroke-miterlimit="10" pointer-events="stroke"/><path d="M 619.88 214.5 L 626.88 211 L 619.88 207.5" fill="none" stroke="rgb(240, 240, 240)" stroke-miterlimit="10" pointer-events="all"/></g><g><g fill="rgb(240, 240, 240)" font-family="Helvetica" font-size="12px"><text x="537.5" y="210.5">1</text></g></g><g><g fill="rgb(240, 240, 240)" font-family="Helvetica" text-anchor="end" font-size="12px"><text x="619.5" y="210.5">1</text></g></g><g><g transform="translate(-0.5 -0.5)"><switch><foreignObject pointer-events="none" width="100%" height="100%" requiredFeatures="http://www.w3.org/TR/SVG11/feature#Extensibility" style="overflow: visible; text-align: left;"><div xmlns="http://www.w3.org/1999/xhtml" style="display: flex; align-items: unsafe center; justify-content: unsafe center; width: 1px; height: 1px; padding-top: 207px; margin-left: 583px;"><div data-drawio-colors="color: rgb(240, 240, 240); " style="box-sizing: border-box; font-size: 0px; text-align: center;"><div style="display: inline-block; font-size: 12px; font-family: Helvetica; color: rgb(240, 240, 240); line-height: 1.2; pointer-events: all; white-space: nowrap;">has an</div></div></div></foreignObject><text x="583" y="210" fill="rgb(240, 240, 240)" font-family="Helvetica" font-size="12px" text-anchor="middle">has an</text></switch></g></g><g><path d="M 628 303 L 628 277 L 788 277 L 788 303" fill="rgb(24, 20, 29)" stroke="rgb(240, 240, 240)" stroke-miterlimit="10" pointer-events="all"/><path d="M 628 303 L 628 337 L 788 337 L 788 303" fill="none" stroke="rgb(240, 240, 240)" stroke-miterlimit="10" pointer-events="none"/><path d="M 628 303 L 788 303" fill="none" stroke="rgb(240, 240, 240)" stroke-miterlimit="10" pointer-events="none"/></g><g><g fill="rgb(240, 240, 240)" font-family="Helvetica" text-anchor="middle" font-size="12px"><text x="707.5" y="294.5">ShippingAddress</text></g></g><g><rect x="628" y="303" width="160" height="26" fill="none" stroke="none" pointer-events="all"/></g><g><g fill="rgb(240, 240, 240)" font-family="Helvetica" clip-path="url(#mx-clip-632-308-152-26-0)" font-size="12px"><text x="633.5" y="320.5">receiver: string</text></g></g><g><path d="M 628 333 L 788 333" fill="none" stroke="rgb(240, 240, 240)" stroke-miterlimit="10" pointer-events="all"/></g><g><path d="M 536 237 L 582 237 L 582 292 L 621.63 292" fill="none" stroke="rgb(240, 240, 240)" stroke-miterlimit="10" pointer-events="stroke"/><path d="M 626.88 292 L 619.88 295.5 L 621.63 292 L 619.88 288.5 Z" fill="rgb(240, 240, 240)" stroke="rgb(240, 240, 240)" stroke-miterlimit="10" pointer-events="all"/></g><g><g transform="translate(-0.5 -0.5)"><switch><foreignObject pointer-events="none" width="100%" height="100%" requiredFeatures="http://www.w3.org/TR/SVG11/feature#Extensibility" style="overflow: visible; text-align: left;"><div xmlns="http://www.w3.org/1999/xhtml" style="display: flex; align-items: unsafe center; justify-content: unsafe center; width: 1px; height: 1px; padding-top: 265px; margin-left: 582px;"><div data-drawio-colors="color: rgb(240, 240, 240); background-color: rgb(24, 20, 29); " style="box-sizing: border-box; font-size: 0px; text-align: center;"><div style="display: inline-block; font-size: 11px; font-family: Helvetica; color: rgb(240, 240, 240); line-height: 1.2; pointer-events: all; background-color: rgb(24, 20, 29); white-space: nowrap;">has a</div></div></div></foreignObject><text x="582" y="268" fill="rgb(240, 240, 240)" font-family="Helvetica" font-size="11px" text-anchor="middle">has a</text></switch></g></g><g><g transform="translate(-0.5 -0.5)"><switch><foreignObject pointer-events="none" width="100%" height="100%" requiredFeatures="http://www.w3.org/TR/SVG11/feature#Extensibility" style="overflow: visible; text-align: left;"><div xmlns="http://www.w3.org/1999/xhtml" style="display: flex; align-items: unsafe center; justify-content: unsafe center; width: 1px; height: 1px; padding-top: 266px; margin-left: 583px;"><div data-drawio-colors="color: rgb(240, 240, 240); background-color: rgb(24, 20, 29); " style="box-sizing: border-box; font-size: 0px; text-align: center;"><div style="display: inline-block; font-size: 11px; font-family: Helvetica; color: rgb(240, 240, 240); line-height: 1.2; pointer-events: all; background-color: rgb(24, 20, 29); white-space: nowrap;">has a</div></div></div></foreignObject><text x="583" y="269" fill="rgb(240, 240, 240)" font-family="Helvetica" font-size="11px" text-anchor="middle">has a</text></switch></g></g><g><g transform="translate(-0.5 -0.5)"><switch><foreignObject pointer-events="none" width="100%" height="100%" requiredFeatures="http://www.w3.org/TR/SVG11/feature#Extensibility" style="overflow: visible; text-align: left;"><div xmlns="http://www.w3.org/1999/xhtml" style="display: flex; align-items: unsafe center; justify-content: unsafe center; width: 1px; height: 1px; padding-top: 231px; margin-left: 538px;"><div data-drawio-colors="color: rgb(240, 240, 240); background-color: rgb(24, 20, 29); " style="box-sizing: border-box; font-size: 0px; text-align: center;"><div style="display: inline-block; font-size: 11px; font-family: Helvetica; color: rgb(240, 240, 240); line-height: 1.2; pointer-events: all; background-color: rgb(24, 20, 29); white-space: nowrap;">1</div></div></div></foreignObject><text x="538" y="234" fill="rgb(240, 240, 240)" font-family="Helvetica" font-size="11px" text-anchor="middle">1</text></switch></g></g><g><path d="M 708.16 277.42 L 708.07 254.12" fill="none" stroke="rgb(240, 240, 240)" stroke-miterlimit="10" pointer-events="stroke"/><path d="M 708 237.12 L 716.57 254.09 L 699.57 254.15 Z" fill="none" stroke="rgb(240, 240, 240)" stroke-miterlimit="10" pointer-events="all"/></g><g><g transform="translate(-0.5 -0.5)"><switch><foreignObject pointer-events="none" width="100%" height="100%" requiredFeatures="http://www.w3.org/TR/SVG11/feature#Extensibility" style="overflow: visible; text-align: left;"><div xmlns="http://www.w3.org/1999/xhtml" style="display: flex; align-items: unsafe center; justify-content: unsafe center; width: 1px; height: 1px; padding-top: 267px; margin-left: 721px;"><div data-drawio-colors="color: rgb(240, 240, 240); background-color: rgb(24, 20, 29); " style="box-sizing: border-box; font-size: 0px; text-align: center;"><div style="display: inline-block; font-size: 11px; font-family: Helvetica; color: rgb(240, 240, 240); line-height: 1.2; pointer-events: all; background-color: rgb(24, 20, 29); white-space: nowrap;">is a</div></div></div></foreignObject><text x="721" y="271" fill="rgb(240, 240, 240)" font-family="Helvetica" font-size="11px" text-anchor="middle">is a</text></switch></g></g><g><path d="M 239.32 202.68 L 329.83 202.29" fill="none" stroke="rgb(240, 240, 240)" stroke-miterlimit="10" pointer-events="stroke"/><path d="M 335.08 202.27 L 328.1 205.8 L 329.83 202.29 L 328.07 198.8 Z" fill="rgb(240, 240, 240)" stroke="rgb(240, 240, 240)" stroke-miterlimit="10" pointer-events="all"/></g><g><path d="M 79 185 L 79 159 L 239 159 L 239 185" fill="rgb(24, 20, 29)" stroke="rgb(240, 240, 240)" stroke-miterlimit="10" pointer-events="all"/><path d="M 79 185 L 79 323 L 239 323 L 239 185" fill="none" stroke="rgb(240, 240, 240)" stroke-miterlimit="10" pointer-events="none"/><path d="M 79 185 L 239 185" fill="none" stroke="rgb(240, 240, 240)" stroke-miterlimit="10" pointer-events="none"/></g><g><g transform="translate(-0.5 -0.5)"><switch><foreignObject pointer-events="none" width="100%" height="100%" requiredFeatures="http://www.w3.org/TR/SVG11/feature#Extensibility" style="overflow: visible; text-align: left;"><div xmlns="http://www.w3.org/1999/xhtml" style="display: flex; align-items: unsafe flex-start; justify-content: unsafe center; width: 158px; height: 1px; padding-top: 166px; margin-left: 80px;"><div data-drawio-colors="color: rgb(240, 240, 240); " style="box-sizing: border-box; font-size: 0px; text-align: center;"><div style="display: inline-block; font-size: 12px; font-family: Helvetica; color: rgb(240, 240, 240); line-height: 1.2; pointer-events: all; font-weight: bold; white-space: normal; overflow-wrap: normal;">Classname</div></div></div></foreignObject><text x="159" y="178" fill="rgb(240, 240, 240)" font-family="Helvetica" font-size="12px" text-anchor="middle" font-weight="bold">Classname</text></switch></g></g><g><rect x="79" y="185" width="160" height="26" fill="none" stroke="none" pointer-events="all"/></g><g><g transform="translate(-0.5 -0.5)"><switch><foreignObject pointer-events="none" width="100%" height="100%" requiredFeatures="http://www.w3.org/TR/SVG11/feature#Extensibility" style="overflow: visible; text-align: left;"><div xmlns="http://www.w3.org/1999/xhtml" style="display: flex; align-items: unsafe flex-start; justify-content: unsafe flex-start; width: 150px; height: 1px; padding-top: 192px; margin-left: 85px;"><div data-drawio-colors="color: rgb(240, 240, 240); " style="box-sizing: border-box; font-size: 0px; text-align: left; max-height: 22px; overflow: hidden;"><div style="display: inline-block; font-size: 12px; font-family: Helvetica; color: rgb(240, 240, 240); line-height: 1.2; pointer-events: all; white-space: normal; overflow-wrap: normal;">customer: Customer</div></div></div></foreignObject><text x="85" y="204" fill="rgb(240, 240, 240)" font-family="Helvetica" font-size="12px">customer: Customer</text></switch></g></g><g><rect x="79" y="211" width="160" height="26" fill="none" stroke="none" pointer-events="all"/></g><g><g transform="translate(-0.5 -0.5)"><switch><foreignObject pointer-events="none" width="100%" height="100%" requiredFeatures="http://www.w3.org/TR/SVG11/feature#Extensibility" style="overflow: visible; text-align: left;"><div xmlns="http://www.w3.org/1999/xhtml" style="display: flex; align-items: unsafe flex-start; justify-content: unsafe flex-start; width: 150px; height: 1px; padding-top: 218px; margin-left: 85px;"><div data-drawio-colors="color: rgb(240, 240, 240); " style="box-sizing: border-box; font-size: 0px; text-align: left; max-height: 22px; overflow: hidden;"><div style="display: inline-block; font-size: 12px; font-family: Helvetica; color: rgb(240, 240, 240); line-height: 1.2; pointer-events: all; white-space: normal; overflow-wrap: normal;">state: OrderState</div></div></div></foreignObject><text x="85" y="230" fill="rgb(240, 240, 240)" font-family="Helvetica" font-size="12px">state: OrderState</text></switch></g></g><g><path d="M 79 241 L 239 241" fill="none" stroke="rgb(240, 240, 240)" stroke-miterlimit="10" pointer-events="all"/></g><g><rect x="79" y="245" width="160" height="26" fill="none" stroke="none" pointer-events="all"/></g><g><g transform="translate(-0.5 -0.5)"><switch><foreignObject pointer-events="none" width="100%" height="100%" requiredFeatures="http://www.w3.org/TR/SVG11/feature#Extensibility" style="overflow: visible; text-align: left;"><div xmlns="http://www.w3.org/1999/xhtml" style="display: flex; align-items: unsafe flex-start; justify-content: unsafe flex-start; width: 150px; height: 1px; padding-top: 252px; margin-left: 85px;"><div data-drawio-colors="color: rgb(240, 240, 240); " style="box-sizing: border-box; font-size: 0px; text-align: left; max-height: 22px; overflow: hidden;"><div style="display: inline-block; font-size: 12px; font-family: Helvetica; color: rgb(240, 240, 240); line-height: 1.2; pointer-events: all; white-space: normal; overflow-wrap: normal;">complete(): string</div></div></div></foreignObject><text x="85" y="264" fill="rgb(240, 240, 240)" font-family="Helvetica" font-size="12px">complete(): string</text></switch></g></g><g><rect x="79" y="271" width="160" height="26" fill="none" stroke="none" pointer-events="all"/></g><g><g transform="translate(-0.5 -0.5)"><switch><foreignObject pointer-events="none" width="100%" height="100%" requiredFeatures="http://www.w3.org/TR/SVG11/feature#Extensibility" style="overflow: visible; text-align: left;"><div xmlns="http://www.w3.org/1999/xhtml" style="display: flex; align-items: unsafe flex-start; justify-content: unsafe flex-start; width: 150px; height: 1px; padding-top: 278px; margin-left: 85px;"><div data-drawio-colors="color: rgb(240, 240, 240); " style="box-sizing: border-box; font-size: 0px; text-align: left; max-height: 22px; overflow: hidden;"><div style="display: inline-block; font-size: 12px; font-family: Helvetica; color: rgb(240, 240, 240); line-height: 1.2; pointer-events: all; white-space: normal; overflow-wrap: normal;">cancel(): string</div></div></div></foreignObject><text x="85" y="290" fill="rgb(240, 240, 240)" font-family="Helvetica" font-size="12px">cancel(): string</text></switch></g></g><g><rect x="79" y="297" width="160" height="26" fill="none" stroke="none" pointer-events="all"/></g><g><g transform="translate(-0.5 -0.5)"><switch><foreignObject pointer-events="none" width="100%" height="100%" requiredFeatures="http://www.w3.org/TR/SVG11/feature#Extensibility" style="overflow: visible; text-align: left;"><div xmlns="http://www.w3.org/1999/xhtml" style="display: flex; align-items: unsafe flex-start; justify-content: unsafe flex-start; width: 150px; height: 1px; padding-top: 304px; margin-left: 85px;"><div data-drawio-colors="color: rgb(240, 240, 240); " style="box-sizing: border-box; font-size: 0px; text-align: left; max-height: 22px; overflow: hidden;"><div style="display: inline-block; font-size: 12px; font-family: Helvetica; color: rgb(240, 240, 240); line-height: 1.2; pointer-events: all; white-space: normal; overflow-wrap: normal;">refund(): string</div></div></div></foreignObject><text x="85" y="316" fill="rgb(240, 240, 240)" font-family="Helvetica" font-size="12px">refund(): string</text></switch></g></g><g><rect x="202" y="458" width="190" height="96" fill="rgb(24, 20, 29)" stroke="rgb(240, 240, 240)" pointer-events="all"/></g><g><g transform="translate(-0.5 -0.5)"><switch><foreignObject pointer-events="none" width="100%" height="100%" requiredFeatures="http://www.w3.org/TR/SVG11/feature#Extensibility" style="overflow: visible; text-align: left;"><div xmlns="http://www.w3.org/1999/xhtml" style="display: flex; align-items: unsafe flex-start; justify-content: unsafe flex-start; width: 192px; height: 96px; padding-top: 458px; margin-left: 202px;"><div data-drawio-colors="color: rgb(240, 240, 240); " style="box-sizing: border-box; font-size: 0px; text-align: left; width: 190px; height: 96px; overflow: hidden;"><div style="display: inline-block; font-size: 12px; font-family: Helvetica; color: rgb(240, 240, 240); line-height: 1.2; pointer-events: all; width: 100%; height: 100%; white-space: normal; overflow-wrap: normal;"><p style="margin:0px;margin-top:4px;text-align:center;"><i>&lt;&lt;Interface&gt;&gt;</i><br /><b>OrderState</b></p><hr style="border-style:solid;" size="1" /><p style="margin:0px;margin-left:4px;">complete(Order): string</p><p style="margin:0px;margin-left:4px;">cancel(Order): string</p><p style="margin:0px;margin-left:4px;">refund(Order): string</p></div></div></div></foreignObject><text x="202" y="470" fill="rgb(240, 240, 240)" font-family="Helvetica" font-size="12px">&lt;&lt;Interface&gt;&gt;...</text></switch></g></g><g><path d="M 239 224 L 297 224 L 297 432.01" fill="none" stroke="rgb(240, 240, 240)" stroke-miterlimit="10" pointer-events="stroke"/><path d="M 297 457.01 L 289.65 444.51 L 297 432.01 L 304.35 444.51 Z" fill="none" stroke="rgb(240, 240, 240)" stroke-miterlimit="10" pointer-events="all"/></g><g><rect x="488" y="443" width="140" height="49" fill="rgb(24, 20, 29)" stroke="rgb(240, 240, 240)" pointer-events="all"/></g><g><g transform="translate(-0.5 -0.5)"><switch><foreignObject pointer-events="none" width="100%" height="100%" requiredFeatures="http://www.w3.org/TR/SVG11/feature#Extensibility" style="overflow: visible; text-align: left;"><div xmlns="http://www.w3.org/1999/xhtml" style="display: flex; align-items: unsafe flex-start; justify-content: unsafe flex-start; width: 142px; height: 49px; padding-top: 443px; margin-left: 488px;"><div data-drawio-colors="color: rgb(240, 240, 240); " style="box-sizing: border-box; font-size: 0px; text-align: left; width: 140px; height: 49px; overflow: hidden;"><div style="display: inline-block; font-size: 12px; font-family: Helvetica; color: rgb(240, 240, 240); line-height: 1.2; pointer-events: all; width: 100%; height: 100%; white-space: normal; overflow-wrap: normal;"><p style="margin:0px;margin-top:4px;text-align:center;"><br /><b>CancelledState</b></p></div></div></div></foreignObject><text x="488" y="455" fill="rgb(240, 240, 240)" font-family="Helvetica" font-size="12px">&#xa;CancelledState</text></switch></g></g><g><rect x="488" y="356" width="140" height="49" fill="rgb(24, 20, 29)" stroke="rgb(240, 240, 240)" pointer-events="all"/></g><g><g transform="translate(-0.5 -0.5)"><switch><foreignObject pointer-events="none" width="100%" height="100%" requiredFeatures="http://www.w3.org/TR/SVG11/feature#Extensibility" style="overflow: visible; text-align: left;"><div xmlns="http://www.w3.org/1999/xhtml" style="display: flex; align-items: unsafe flex-start; justify-content: unsafe flex-start; width: 142px; height: 49px; padding-top: 356px; margin-left: 488px;"><div data-drawio-colors="color: rgb(240, 240, 240); " style="box-sizing: border-box; font-size: 0px; text-align: left; width: 140px; height: 49px; overflow: hidden;"><div style="display: inline-block; font-size: 12px; font-family: Helvetica; color: rgb(240, 240, 240); line-height: 1.2; pointer-events: all; width: 100%; height: 100%; white-space: normal; overflow-wrap: normal;"><p style="margin:0px;margin-top:4px;text-align:center;"><br /><b>PendingState</b></p></div></div></div></foreignObject><text x="488" y="368" fill="rgb(240, 240, 240)" font-family="Helvetica" font-size="12px">&#xa;PendingState</text></switch></g></g><g><rect x="488" y="530" width="140" height="49" fill="rgb(24, 20, 29)" stroke="rgb(240, 240, 240)" pointer-events="all"/></g><g><g transform="translate(-0.5 -0.5)"><switch><foreignObject pointer-events="none" width="100%" height="100%" requiredFeatures="http://www.w3.org/TR/SVG11/feature#Extensibility" style="overflow: visible; text-align: left;"><div xmlns="http://www.w3.org/1999/xhtml" style="display: flex; align-items: unsafe flex-start; justify-content: unsafe flex-start; width: 142px; height: 49px; padding-top: 530px; margin-left: 488px;"><div data-drawio-colors="color: rgb(240, 240, 240); " style="box-sizing: border-box; font-size: 0px; text-align: left; width: 140px; height: 49px; overflow: hidden;"><div style="display: inline-block; font-size: 12px; font-family: Helvetica; color: rgb(240, 240, 240); line-height: 1.2; pointer-events: all; width: 100%; height: 100%; white-space: normal; overflow-wrap: normal;"><p style="margin:0px;margin-top:4px;text-align:center;"><br /><b>CompletedState</b></p></div></div></div></foreignObject><text x="488" y="542" fill="rgb(240, 240, 240)" font-family="Helvetica" font-size="12px">&#xa;CompletedState</text></switch></g></g><g><rect x="488" y="617" width="140" height="49" fill="rgb(24, 20, 29)" stroke="rgb(240, 240, 240)" pointer-events="all"/></g><g><g transform="translate(-0.5 -0.5)"><switch><foreignObject pointer-events="none" width="100%" height="100%" requiredFeatures="http://www.w3.org/TR/SVG11/feature#Extensibility" style="overflow: visible; text-align: left;"><div xmlns="http://www.w3.org/1999/xhtml" style="display: flex; align-items: unsafe flex-start; justify-content: unsafe flex-start; width: 142px; height: 49px; padding-top: 617px; margin-left: 488px;"><div data-drawio-colors="color: rgb(240, 240, 240); " style="box-sizing: border-box; font-size: 0px; text-align: left; width: 140px; height: 49px; overflow: hidden;"><div style="display: inline-block; font-size: 12px; font-family: Helvetica; color: rgb(240, 240, 240); line-height: 1.2; pointer-events: all; width: 100%; height: 100%; white-space: normal; overflow-wrap: normal;"><p style="margin:0px;margin-top:4px;text-align:center;"><br /><b>RefundedState</b></p></div></div></div></foreignObject><text x="488" y="629" fill="rgb(240, 240, 240)" font-family="Helvetica" font-size="12px">&#xa;RefundedState</text></switch></g></g><g><path d="M 488 380.5 L 440 380.5 L 440 506 L 406.12 506" fill="none" stroke="rgb(240, 240, 240)" stroke-miterlimit="10" stroke-dasharray="3 3" pointer-events="stroke"/><path d="M 393.12 506 L 406.12 499.5 L 406.12 512.5 Z" fill="none" stroke="rgb(240, 240, 240)" stroke-miterlimit="10" pointer-events="all"/></g><g><path d="M 488 467.5 L 440 467.5 L 440 506 L 406.12 506" fill="none" stroke="rgb(240, 240, 240)" stroke-miterlimit="10" stroke-dasharray="3 3" pointer-events="stroke"/><path d="M 393.12 506 L 406.12 499.5 L 406.12 512.5 Z" fill="none" stroke="rgb(240, 240, 240)" stroke-miterlimit="10" pointer-events="all"/></g><g><path d="M 488 554.5 L 440 554.5 L 440 506 L 406.12 506" fill="none" stroke="rgb(240, 240, 240)" stroke-miterlimit="10" stroke-dasharray="3 3" pointer-events="stroke"/><path d="M 393.12 506 L 406.12 499.5 L 406.12 512.5 Z" fill="none" stroke="rgb(240, 240, 240)" stroke-miterlimit="10" pointer-events="all"/></g><g><path d="M 488 641.5 L 440 641.5 L 440 506 L 406.12 506" fill="none" stroke="rgb(240, 240, 240)" stroke-miterlimit="10" stroke-dasharray="3 3" pointer-events="stroke"/><path d="M 393.12 506 L 406.12 499.5 L 406.12 512.5 Z" fill="none" stroke="rgb(240, 240, 240)" stroke-miterlimit="10" pointer-events="all"/></g><g><path d="M 79 343 L 179 343 L 196 360 L 196 370 L 79 370 L 79 343 Z" fill="rgb(24, 20, 29)" stroke="rgb(240, 240, 240)" stroke-miterlimit="10" pointer-events="all"/><path d="M 179 343 L 179 360 L 196 360 Z" fill-opacity="0.05" fill="#000000" stroke="none" pointer-events="all"/><path d="M 179 343 L 179 360 L 196 360" fill="none" stroke="rgb(240, 240, 240)" stroke-miterlimit="10" pointer-events="all"/></g><g><g transform="translate(-0.5 -0.5)"><switch><foreignObject pointer-events="none" width="100%" height="100%" requiredFeatures="http://www.w3.org/TR/SVG11/feature#Extensibility" style="overflow: visible; text-align: left;"><div xmlns="http://www.w3.org/1999/xhtml" style="display: flex; align-items: unsafe flex-start; justify-content: unsafe flex-start; width: 115px; height: 1px; padding-top: 350px; margin-left: 81px;"><div data-drawio-colors="color: rgb(240, 240, 240); " style="box-sizing: border-box; font-size: 0px; text-align: left;"><div style="display: inline-block; font-size: 12px; font-family: Helvetica; color: rgb(240, 240, 240); line-height: 1.2; pointer-events: all; white-space: normal; overflow-wrap: normal;">state.refund()</div></div></div></foreignObject><text x="81" y="362" fill="rgb(240, 240, 240)" font-family="Helvetica" font-size="12px">state.refund()</text></switch></g></g><g><path d="M 79 383 L 179 383 L 196 400 L 196 410 L 79 410 L 79 383 Z" fill="rgb(24, 20, 29)" stroke="rgb(240, 240, 240)" stroke-miterlimit="10" pointer-events="all"/><path d="M 179 383 L 179 400 L 196 400 Z" fill-opacity="0.05" fill="#000000" stroke="none" pointer-events="all"/><path d="M 179 383 L 179 400 L 196 400" fill="none" stroke="rgb(240, 240, 240)" stroke-miterlimit="10" pointer-events="all"/></g><g><g transform="translate(-0.5 -0.5)"><switch><foreignObject pointer-events="none" width="100%" height="100%" requiredFeatures="http://www.w3.org/TR/SVG11/feature#Extensibility" style="overflow: visible; text-align: left;"><div xmlns="http://www.w3.org/1999/xhtml" style="display: flex; align-items: unsafe flex-start; justify-content: unsafe flex-start; width: 115px; height: 1px; padding-top: 390px; margin-left: 81px;"><div data-drawio-colors="color: rgb(240, 240, 240); " style="box-sizing: border-box; font-size: 0px; text-align: left;"><div style="display: inline-block; font-size: 12px; font-family: Helvetica; color: rgb(240, 240, 240); line-height: 1.2; pointer-events: all; white-space: normal; overflow-wrap: normal;">state.cancel()</div></div></div></foreignObject><text x="81" y="402" fill="rgb(240, 240, 240)" font-family="Helvetica" font-size="12px">state.cancel()</text></switch></g></g><g><path d="M 79 423 L 179 423 L 196 440 L 196 450 L 79 450 L 79 423 Z" fill="rgb(24, 20, 29)" stroke="rgb(240, 240, 240)" stroke-miterlimit="10" pointer-events="all"/><path d="M 179 423 L 179 440 L 196 440 Z" fill-opacity="0.05" fill="#000000" stroke="none" pointer-events="all"/><path d="M 179 423 L 179 440 L 196 440" fill="none" stroke="rgb(240, 240, 240)" stroke-miterlimit="10" pointer-events="all"/></g><g><g transform="translate(-0.5 -0.5)"><switch><foreignObject pointer-events="none" width="100%" height="100%" requiredFeatures="http://www.w3.org/TR/SVG11/feature#Extensibility" style="overflow: visible; text-align: left;"><div xmlns="http://www.w3.org/1999/xhtml" style="display: flex; align-items: unsafe flex-start; justify-content: unsafe flex-start; width: 115px; height: 1px; padding-top: 430px; margin-left: 81px;"><div data-drawio-colors="color: rgb(240, 240, 240); " style="box-sizing: border-box; font-size: 0px; text-align: left;"><div style="display: inline-block; font-size: 12px; font-family: Helvetica; color: rgb(240, 240, 240); line-height: 1.2; pointer-events: all; white-space: normal; overflow-wrap: normal;">state.complete()</div></div></div></foreignObject><text x="81" y="442" fill="rgb(240, 240, 240)" font-family="Helvetica" font-size="12px">state.complete()</text></switch></g></g><g><path d="M 79 436.5 L 21 436.5 L 21 258 L 79 258" fill="none" stroke="rgb(240, 240, 240)" stroke-width="2" stroke-miterlimit="10" stroke-dasharray="2 6" pointer-events="stroke"/></g><g><path d="M 79 396.5 L 41 396.5 L 41 284 L 79 284" fill="none" stroke="rgb(240, 240, 240)" stroke-width="2" stroke-miterlimit="10" stroke-dasharray="2 6" pointer-events="stroke"/></g><g><path d="M 79 356.5 L 63 356.5 L 63 310 L 79 310" fill="none" stroke="rgb(240, 240, 240)" stroke-width="2" stroke-miterlimit="10" stroke-dasharray="2 6" pointer-events="stroke"/></g></g></svg>